^C:\USERS\JOSEPH\DOCUMENTS\VISUAL STUDIO 2010\PROJECTS\SIMPLEREPORTING\SIMPLEREPORTING\FRMMAIN.RESX|C:\USERS\JOSEPH\DOCUMENTS\VISUAL STUDIO 2010\PROJECTS\SIMPLEREPORTING\SIMPLEREPORTING\FRMNEWINSTALL.RESX|C:\USERS\JOSEPH\DOCUMENTS\VISUAL STUDIO 2010\PROJECTS\SIMPLEREPORTING\SIMPLEREPORTING\PROPERTIES\RESOURCES.RESX
C:\USERS\JOSEPH\DOCUMENTS\VISUAL STUDIO 2010\PROJECTS\SIMPLEREPORTING\SIMPLEREPORTING\OBJ\X86\DEBUG\SIMPLEREPORTING.FRMMAIN.RESOURCES
C:\USERS\JOSEPH\DOCUMENTS\VISUAL STUDIO 2010\PROJECTS\SIMPLEREPORTING\SIMPLEREPORTING\OBJ\X86\DEBUG\SIMPLEREPORTING.FRMNEWINSTALL.RESOURCES
C:\USERS\JOSEPH\DOCUMENTS\VISUAL STUDIO 2010\PROJECTS\SIMPLEREPORTING\SIMPLEREPORTING\OBJ\X86\DEBUG\SIMPLEREPORTING.PROPERTIES.RESOURCES.RESOURCES
^C:\USERS\JOSEPH\DOCUMENTS\VISUAL STUDIO 2010\PROJECTS\SIMPLEREPORTING\SIMPLEREPORTING\FRMNEWINSTALL.RESX
C:\USERS\JOSEPH\DOCUMENTS\VISUAL STUDIO 2010\PROJECTS\SIMPLEREPORTING\SIMPLEREPORTING\OBJ\X86\DEBUG\SIMPLEREPORTING.FRMNEWINSTALL.RESOURCES
^C:\USERS\JOSEPH\DOCUMENTS\VISUAL STUDIO 2010\PROJECTS\SIMPLEREPORTING\SIMPLEREPORTING\FRMCHOOSEDB.RESX|C:\USERS\JOSEPH\DOCUMENTS\VISUAL STUDIO 2010\PROJECTS\SIMPLEREPORTING\SIMPLEREPORTING\FRMMAIN.RESX|C:\USERS\JOSEPH\DOCUMENTS\VISUAL STUDIO 2010\PROJECTS\SIMPLEREPORTING\SIMPLEREPORTING\PROPERTIES\RESOURCES.RESX
C:\USERS\JOSEPH\DOCUMENTS\VISUAL STUDIO 2010\PROJECTS\SIMPLEREPORTING\SIMPLEREPORTING\OBJ\X86\DEBUG\SIMPLEREPORTING.FRMCHOOSEDB.RESOURCES
C:\USERS\JOSEPH\DOCUMENTS\VISUAL STUDIO 2010\PROJECTS\SIMPLEREPORTING\SIMPLEREPORTING\OBJ\X86\DEBUG\SIMPLEREPORTING.FRMMAIN.RESOURCES
C:\USERS\JOSEPH\DOCUMENTS\VISUAL STUDIO 2010\PROJECTS\SIMPLEREPORTING\SIMPLEREPORTING\OBJ\X86\DEBUG\SIMPLEREPORTING.PROPERTIES.RESOURCES.RESOURCES
^C:\USERS\JOSEPH\DOCUMENTS\VISUAL STUDIO 2010\PROJECTS\SIMPLEREPORTING\SIMPLEREPORTING\FRMCHOOSEDB.RESX|C:\USERS\JOSEPH\DOCUMENTS\VISUAL STUDIO 2010\PROJECTS\SIMPLEREPORTING\SIMPLEREPORTING\FRMMAIN.RESX|C:\USERS\JOSEPH\DOCUMENTS\VISUAL STUDIO 2010\PROJECTS\SIMPLEREPORTING\SIMPLEREPORTING\FRMQUERY.RESX|C:\USERS\JOSEPH\DOCUMENTS\VISUAL STUDIO 2010\PROJECTS\SIMPLEREPORTING\SIMPLEREPORTING\PROPERTIES\RESOURCES.RESX
C:\USERS\JOSEPH\DOCUMENTS\VISUAL STUDIO 2010\PROJECTS\SIMPLEREPORTING\SIMPLEREPORTING\OBJ\X86\DEBUG\SIMPLEREPORTING.FRMCHOOSEDB.RESOURCES
C:\USERS\JOSEPH\DOCUMENTS\VISUAL STUDIO 2010\PROJECTS\SIMPLEREPORTING\SIMPLEREPORTING\OBJ\X86\DEBUG\SIMPLEREPORTING.FRMMAIN.RESOURCES
C:\USERS\JOSEPH\DOCUMENTS\VISUAL STUDIO 2010\PROJECTS\SIMPLEREPORTING\SIMPLEREPORTING\OBJ\X86\DEBUG\SIMPLEREPORTING.FRMQUERY.RESOURCES
C:\USERS\JOSEPH\DOCUMENTS\VISUAL STUDIO 2010\PROJECTS\SIMPLEREPORTING\SIMPLEREPORTING\OBJ\X86\DEBUG\SIMPLEREPORTING.PROPERTIES.RESOURCES.RESOURCES
^C:\USERS\JOSEPH\DOCUMENTS\VISUAL STUDIO 2010\PROJECTS\SIMPLEREPORTING\SIMPLEREPORTING\FRMCHOOSEDB.RESX|C:\USERS\JOSEPH\DOCUMENTS\VISUAL STUDIO 2010\PROJECTS\SIMPLEREPORTING\SIMPLEREPORTING\FRMMAIN.RESX
C:\USERS\JOSEPH\DOCUMENTS\VISUAL STUDIO 2010\PROJECTS\SIMPLEREPORTING\SIMPLEREPORTING\OBJ\X86\DEBUG\SIMPLEREPORTING.FRMCHOOSEDB.RESOURCES
C:\USERS\JOSEPH\DOCUMENTS\VISUAL STUDIO 2010\PROJECTS\SIMPLEREPORTING\SIMPLEREPORTING\OBJ\X86\DEBUG\SIMPLEREPORTING.FRMMAIN.RESOURCES
^C:\USERS\JOSEPH\DOCUMENTS\VISUAL STUDIO 2010\PROJECTS\SIMPLEREPORTING\SIMPLEREPORTING\FRMQUERY.RESX
C:\USERS\JOSEPH\DOCUMENTS\VISUAL STUDIO 2010\PROJECTS\SIMPLEREPORTING\SIMPLEREPORTING\OBJ\X86\DEBUG\SIMPLEREPORTING.FRMQUERY.RESOURCES
^C:\USERS\JOSEPH\DOCUMENTS\VISUAL STUDIO 2010\PROJECTS\SIMPLEREPORTING\SIMPLEREPORTING\FRMCHOOSEDB.RESX|C:\USERS\JOSEPH\DOCUMENTS\VISUAL STUDIO 2010\PROJECTS\SIMPLEREPORTING\SIMPLEREPORTING\FRMMAIN.RESX|C:\USERS\JOSEPH\DOCUMENTS\VISUAL STUDIO 2010\PROJECTS\SIMPLEREPORTING\SIMPLEREPORTING\FRMPARAMTEXT.RESX|C:\USERS\JOSEPH\DOCUMENTS\VISUAL STUDIO 2010\PROJECTS\SIMPLEREPORTING\SIMPLEREPORTING\FRMQUERY.RESX|C:\USERS\JOSEPH\DOCUMENTS\VISUAL STUDIO 2010\PROJECTS\SIMPLEREPORTING\SIMPLEREPORTING\PROPERTIES\RESOURCES.RESX
C:\USERS\JOSEPH\DOCUMENTS\VISUAL STUDIO 2010\PROJECTS\SIMPLEREPORTING\SIMPLEREPORTING\OBJ\X86\DEBUG\SIMPLEREPORTING.FRMCHOOSEDB.RESOURCES
C:\USERS\JOSEPH\DOCUMENTS\VISUAL STUDIO 2010\PROJECTS\SIMPLEREPORTING\SIMPLEREPORTING\OBJ\X86\DEBUG\SIMPLEREPORTING.FRMMAIN.RESOURCES
C:\USERS\JOSEPH\DOCUMENTS\VISUAL STUDIO 2010\PROJECTS\SIMPLEREPORTING\SIMPLEREPORTING\OBJ\X86\DEBUG\SIMPLEREPORTING.FRMPARAMTEXT.RESOURCES
C:\USERS\JOSEPH\DOCUMENTS\VISUAL STUDIO 2010\PROJECTS\SIMPLEREPORTING\SIMPLEREPORTING\OBJ\X86\DEBUG\SIMPLEREPORTING.FRMQUERY.RESOURCES
C:\USERS\JOSEPH\DOCUMENTS\VISUAL STUDIO 2010\PROJECTS\SIMPLEREPORTING\SIMPLEREPORTING\OBJ\X86\DEBUG\SIMPLEREPORTING.PROPERTIES.RESOURCES.RESOURCES
^C:\USERS\JOSEPH\DOCUMENTS\VISUAL STUDIO 2010\PROJECTS\SIMPLEREPORTING\SIMPLEREPORTING\FRMPARAMTEXT.RESX
C:\USERS\JOSEPH\DOCUMENTS\VISUAL STUDIO 2010\PROJECTS\SIMPLEREPORTING\SIMPLEREPORTING\OBJ\X86\DEBUG\SIMPLEREPORTING.FRMPARAMTEXT.RESOURCES
^C:\USERS\JOSEPH\DOCUMENTS\VISUAL STUDIO 2010\PROJECTS\SIMPLEREPORTING\SIMPLEREPORTING\FRMCHOOSEDB.RESX
C:\USERS\JOSEPH\DOCUMENTS\VISUAL STUDIO 2010\PROJECTS\SIMPLEREPORTING\SIMPLEREPORTING\OBJ\X86\DEBUG\SIMPLEREPORTING.FRMCHOOSEDB.RESOURCES
